%YAML 1.1
%TAG !u! tag:unity3d.com,2011:
--- !u!78 &1
TagManager:
  serializedVersion: 2
  tags:
  - Enemigo
  - Camioneta
  - Obstaculo
  - Vendedor
  - Limites
  - Jefe
  - Cohete
  - Construccion
  layers:
  - Default
  - TransparentFX
  - Ignore Raycast
  - Bala
  - Water
  - UI
  - Limites
  - Enemigo
  - Camioneta
  - Area
  - Cohete
  - Player
  - 
  - 
  - 
  - 
  - 
  - 
  - 
  - 
  - 
  - 
  - 
  - 
  - 
  - 
  - 
  - 
  - 
  - 
  - 
  - 
  m_SortingLayers:
  - name: Default
    uniqueID: 0
    locked: 0
